{
  "host": "localhost",
  "port": 3030,
  "public": "./public/",
  "origins": [
    "http://localhost:3030"
  ],
  "paginate": {
    "default": 10,
    "max": 50
  },
  "mongodb": "mongodb://127.0.0.1:27017/todo-app",
  "authentication": {
    "entity": "user",
    "service": "users",
    "secret": "nv4gkjOqwy6Z8ep24i9WxgqJz/mP9y4k",
    "authStrategies": [
      "jwt",
      "local"
    ],
    "jwtOptions": {
      "header": {
        "typ": "access"
      },
      "audience": "https://yourdomain.com",
      "algorithm": "HS256",
      "expiresIn": "1d"
    },
    "local": {
      "usernameField": "email",
      "passwordField": "password"
    }
  }
}